Carbon pricing policies and decoupling between greenhouse gas emissions and economic growth: A panel study of 30 European countries, 1996-2014
…
# setwd("~")
data <- read.csv("decoupling.csv") ## raw dataset is uploaded on the github 
data <- as_tibble(data)
data ## the first column shows an encoding error (country), but it does not matter since we will use "countrycode". 

## # A tibble: 570 x 31
##    ountry countrycode  year    pop urbanpop urbanpopper emission
##    <fct>      <fct>       <int>  <int>    <int>       <dbl>    <dbl>
##  1 Austria    AUT          1996 7.96e6  5237033        65.8     84.5
##  2 Austria    AUT          1997 7.97e6  5242971        65.8     84.0
##  3 Austria    AUT          1998 7.98e6  5248727        65.8     83.4
##  4 Austria    AUT          1999 7.99e6  5258949        65.8     81.7
##  5 Austria    AUT          2000 8.01e6  5271610        65.8     82.2
##  6 Austria    AUT          2001 8.04e6  5291909        65.8     86.2
##  7 Austria    AUT          2002 8.08e6  5318413        65.8     87.8
##  8 Austria    AUT          2003 8.12e6  5344871        65.8     93.4
##  9 Austria    AUT          2004 8.17e6  5378625        65.8     93.4
## 10 Austria    AUT          2005 8.23e6  5415886        65.8     94.6
## # ... with 560 more rows, and 24 more variables: emission1996 <dbl>,
## #   emissionpc <dbl>, emissionpc1996 <dbl>, gdp <dbl>, gdpmil <dbl>,
## #   gdp1996 <dbl>, gdppc <dbl>, gdppc1996 <dbl>, gdpgrowth <dbl>, decoup <dbl>,
## #   consume <dbl>, eneuse <dbl>, consumeep <dbl>, consumeff <dbl>,
## #   consumere <dbl>, co2inten <dbl>, epdtloss <dbl>, manuperc <dbl>,
## #   manuexp <dbl>, polity <int>, ETS <int>, carbontax <int>, indpergdp <dbl>,
## #   elecprodfromfossil <dbl>
…
